{
  "count": 42,
  "num_pages": 2,
  "next": "https://us.provetcloud.com/1234/api/0.1/invoicerow/?page=2",
  "previous": null,
  "results": [
    {
      "url": "https://us.provetcloud.com/1234/api/0.1/invoicerow/1/",
      "invoice": "https://us.provetcloud.com/1234/api/0.1/invoice/1/",
      "consultation_item": "https://us.provetcloud.com/1234/api/0.1/consultationitem/1/",
      "original_consultation": "https://us.provetcloud.com/1234/api/0.1/consultation/1/",
      "item": "https://us.provetcloud.com/1234/api/0.1/item/1/",
      "name": "Clomicalm",
      "invoice_group": "Canine",
      "quantity": 1.0,
      "price": 49.0,
      "price_with_vat": 49.0,
      "sum": 49.0,
      "sum_vat": 0.0,
      "sum_total": 49.0,
      "percentage_change": 0.0,
      "created": "2018-03-26T21:23:19-04:00",
      "modified": "2018-03-26T21:23:19-04:00",
      "used": "2018-03-26T21:23:19-04:00",
      "prescription": false,
      "vat_percentage": 0.0,
      "account_number": null,
      "reporting_dimension_1": null,
      "reporting_dimension_2": null,
      "credited_invoicerow": null,
      "first_credited_invoicerow": null,
      "first_credit_invoicerows": [],
      "patient": null,
      "parent_linked_item": null,
      "linked_items": [],
      "panel": null,
      "order_in_panel": 1,
      "additional_tax_percentage": 0.0,
      "royalty_fee": null,
      "calculated_price": 49.0,
      "calculated_price_with_vat": 49.0,
      "invoicable_quantity": 1.0
    },
    {
      "url": "https://us.provetcloud.com/1234/api/0.1/invoicerow/2/",
      "invoice": "https://us.provetcloud.com/1234/api/0.1/invoice/2/",
      "consultation_item": "https://us.provetcloud.com/1234/api/0.1/consultationitem/2/",
      "original_consultation": "https://us.provetcloud.com/1234/api/0.1/consultation/2/",
      "item": "https://us.provetcloud.com/1234/api/0.1/item/2/",
      "name": "Microchip",
      "invoice_group": "General",
      "quantity": 1.0,
      "price": 79.17,
      "price_with_vat": 95.0,
      "sum": 79.17,
      "sum_vat": 15.83,
      "sum_total": 95.0,
      "percentage_change": 0.0,
      "created": "2018-06-13T13:03:49-04:00",
      "modified": "2018-06-13T13:03:49-04:00",
      "used": "2018-06-14T12:03:00-04:00",
      "prescription": false,
      "vat_percentage": 20.0,
      "account_number": null,
      "reporting_dimension_1": null,
      "reporting_dimension_2": null,
      "credited_invoicerow": null,
      "first_credited_invoicerow": null,
      "first_credit_invoicerows": [],
      "patient": null,
      "parent_linked_item": null,
      "linked_items": [],
      "panel": null,
      "order_in_panel": 1,
      "additional_tax_percentage": 0.0,
      "royalty_fee": null,
      "calculated_price": 79.17,
      "calculated_price_with_vat": 95.004,
      "invoicable_quantity": 1.0
    }
  ]
}
