{
  "count": 42,
  "num_pages": 2,
  "next": "https://us.provetcloud.com/1234/api/0.1/remindertemplate/?page=2",
  "previous": null,
  "results": [
    {
      "url": "https://us.provetcloud.com/1234/api/0.1/remindertemplate/1/",
      "id": 1,
      "title": "Vaccination Reminder",
      "email_text": "<p>\n\nVaccination reminder<br>Your [[patient_name]] needs an update on the regular vaccination. Current vaccination expires [[expiry_date]]. Please contact [[clinic_telephone]] or [[onlinebooking_url]] to book an appointment. Your [[clinic_name]].\n<br></p>",
      "sms_text": "Vaccination reminder\nYour [[patient_name]] needs an update on the regular vaccination. Current vaccination expires [[expiry_date]]. Please contact [[clinic_telephone]] or [[onlinebooking_url]] to book an appointment. Your [[clinic_name]].",
      "post_text": "",
      "department": "https://us.provetcloud.com/1234/api/0.1/department/1/",
      "created_by": "https://us.provetcloud.com/1234/api/0.1/user/1/",
      "created": "2018-07-05T17:25:28-04:00",
      "modified_by": null,
      "modified": "2018-07-05T17:25:28-04:00"
    },
    {
      "url": "https://us.provetcloud.com/1234/api/0.1/remindertemplate/2/",
      "id": 2,
      "title": "Annual Health Care Check",
      "email_text": "<p>\n\nAnnual Health Care Check<br>Your [[patient_name]] needs regular health care check. Please contact [[clinic_telephone]] or [[onlinebooking_url]] to book an appointment. Your [[clinic_name]].<br></p>",
      "sms_text": "Annual Health Care Check\nYour [[patient_name]] needs regular health care check. Please contact [[clinic_telephone]] or [[onlinebooking_url]] to book an appointment. Your [[clinic_name]].",
      "post_text": "",
      "department": "https://us.provetcloud.com/1234/api/0.1/department/1/",
      "created_by": null,
      "created": "2018-07-05T17:25:28-04:00",
      "modified_by": null,
      "modified": "2018-07-05T17:25:28-04:00"
    }
  ]
}
