{
  "count": 42,
  "num_pages": 2,
  "next": "https://us.provetcloud.com/1234/api/0.1/itemtemplate/?page=2",
  "previous": null,
  "results": [
    {
      "url": "https://us.provetcloud.com/1234/api/0.1/itemtemplate/1/",
      "id": 1,
      "name": "Fecal Panel - Internal Lab",
      "department": "https://us.provetcloud.com/1234/api/0.1/department/1/",
      "item_list": "https://us.provetcloud.com/1234/api/0.1/itemlist/1/",
      "use_fixed_price": false,
      "fixed_price": null
    },
    {
      "url": "https://us.provetcloud.com/1234/api/0.1/itemtemplate/2/",
      "id": 2,
      "name": "Spay & Neuter",
      "department": "https://us.provetcloud.com/1234/api/0.1/department/1/",
      "item_list": "https://us.provetcloud.com/1234/api/0.1/itemlist/1/",
      "use_fixed_price": true,
      "fixed_price": 42.0
    }
  ]
}
