{
  "count": 42,
  "num_pages": 2,
  "next": "https://us.provetcloud.com/1234/api/0.1/shifttype/?page=2",
  "previous": null,
  "results": [
    {
      "url": "https://us.provetcloud.com/1234/api/0.1/shifttype/1/",
      "name": "Workday",
      "code": 1,
      "department": "https://us.provetcloud.com/1234/api/0.1/department/1/",
      "in_appointments": true,
      "in_online_booking": true,
      "in_all_day": false,
      "is_custom": false,
      "is_active": true
    },
    {
      "url": "https://us.provetcloud.com/1234/api/0.1/shifttype/2/",
      "name": "Office",
      "code": 2,
      "department": "https://us.provetcloud.com/1234/api/0.1/department/1/",
      "in_appointments": false,
      "in_online_booking": false,
      "in_all_day": false,
      "is_custom": false,
      "is_active": true
    }
  ]
}
