{
  "count": 42,
  "num_pages": 2,
  "next": "https://us.provetcloud.com/1234/api/0.1/consultationitem/?page=2",
  "previous": null,
  "results": [
    {
      "url": "https://us.provetcloud.com/1234/api/0.1/consultationitem/1/",
      "consultation": "https://us.provetcloud.com/1234/api/0.1/consultation/1/",
      "patient": "https://us.provetcloud.com/1234/api/0.1/patient/1/",
      "item": "https://us.provetcloud.com/1234/api/0.1/item/1/",
      "code": "QN06AA04",
      "name": "Clomicalm",
      "quantity": 1.0,
      "price": 49.0,
      "price_with_vat": 49.0,
      "supervising_veterinarian_name": "Luke Skywalker",
      "vat_percentage": 0.0,
      "type_code": 2,
      "invoicerow": "https://us.provetcloud.com/1234/api/0.1/invoicerow/1/",
      "parent_linked_item": null,
      "linked_items": [],
      "created": "2018-03-26T21:23:19-04:00",
      "modified": "2018-03-26T21:23:19-04:00",
      "used": "2018-03-26T21:23:19-04:00",
      "usage_type": 1,
      "unit": "pcs",
      "instructions": "",
      "description": null,
      "template": null
    },
    {
      "url": "https://us.provetcloud.com/1234/api/0.1/consultationitem/2/",
      "consultation": "https://us.provetcloud.com/1234/api/0.1/consultation/2/",
      "patient": "https://us.provetcloud.com/1234/api/0.1/patient/2/",
      "item": "https://us.provetcloud.com/1234/api/0.1/item/2/",
      "code": "",
      "name": "Microchip",
      "quantity": 1.0,
      "price": 79.17,
      "price_with_vat": 95.0,
      "supervising_veterinarian_name": "Luke Skywalker",
      "vat_percentage": 20.0,
      "type_code": 1,
      "invoicerow": "https://us.provetcloud.com/1234/api/0.1/invoicerow/2/",
      "parent_linked_item": null,
      "linked_items": [],
      "created": "2018-06-13T13:03:49-04:00",
      "modified": "2018-06-13T13:03:49-04:00",
      "used": "2018-06-14T12:03:00-04:00",
      "usage_type": null,
      "unit": null,
      "instructions": null,
      "description": "",
      "template": null
    }
  ]
}
