{
  "count": 42,
  "num_pages": 2,
  "next": "https://us.provetcloud.com/1234/api/0.1/consultationitemtemplate/?page=2",
  "previous": null,
  "results": [
    {
      "id": 1,
      "url": "https://us.provetcloud.com/1234/api/0.1/consultationitemtemplate/1/",
      "consultation": "https://us.provetcloud.com/1234/api/0.1/consultation/1/",
      "patient": "https://us.provetcloud.com/1234/api/0.1/patient/1/",
      "main_consultation_template": null,
      "base_template": "https://us.provetcloud.com/1234/api/0.1/itemtemplate/1/",
      "name": "Spay & Neuter"
    },
    {
      "id": 2,
      "url": "https://us.provetcloud.com/1234/api/0.1/consultationitemtemplate/2/",
      "consultation": "https://us.provetcloud.com/1234/api/0.1/consultation/2/",
      "patient": "https://us.provetcloud.com/1234/api/0.1/patient/2/",
      "main_consultation_template": null,
      "base_template": "https://us.provetcloud.com/1234/api/0.1/itemtemplate/2/",
      "name": "Spay & Neuter"
    }
  ]
}
