{
  "count": 42,
  "num_pages": 2,
  "next": "https://us.provetcloud.com/1234/api/0.1/shift/?page=2",
  "previous": null,
  "results": [
    {
      "id": 1,
      "url": "https://us.provetcloud.com/1234/api/0.1/shift/1/",
      "start": "2018-03-06T08:00:00-05:00",
      "end": "2018-03-06T16:00:00-05:00",
      "user": "https://us.provetcloud.com/1234/api/0.1/user/1/",
      "department": "https://us.provetcloud.com/1234/api/0.1/department/1/",
      "ward": null,
      "team": null,
      "shift_type": "https://us.provetcloud.com/1234/api/0.1/shifttype/1/",
      "web": true,
      "note": "",
      "is_slot": false
    },
    {
      "id": 2,
      "url": "https://us.provetcloud.com/1234/api/0.1/shift/2/",
      "start": "2018-03-13T09:00:00-04:00",
      "end": "2018-03-13T17:00:00-04:00",
      "user": "https://us.provetcloud.com/1234/api/0.1/user/1/",
      "department": "https://us.provetcloud.com/1234/api/0.1/department/1/",
      "ward": null,
      "team": null,
      "shift_type": "https://us.provetcloud.com/1234/api/0.1/shifttype/1/",
      "web": true,
      "note": "",
      "is_slot": false
    }
  ]
}
