{
  "count": 42,
  "num_pages": 2,
  "next": "https://us.provetcloud.com/1234/api/0.1/reminder/?page=2",
  "previous": null,
  "results": [
    {
      "url": "https://us.provetcloud.com/1234/api/0.1/reminder/1/",
      "department": "https://us.provetcloud.com/1234/api/0.1/department/1/",
      "reminder_template": null,
      "patient": "https://us.provetcloud.com/1234/api/0.1/patient/1/",
      "client": "https://us.provetcloud.com/1234/api/0.1/client/1/",
      "email_address": "luke@example.com",
      "phone_number": "+16461234567",
      "email_subject": "",
      "email_text": "",
      "sms_text": "",
      "post_text": "",
      "text_manually": false,
      "send_before": 1,
      "send_method": 1,
      "expiry_date": "2020-02-22",
      "planned_sending_date": "2020-02-21",
      "status": 0,
      "created_by": "https://us.provetcloud.com/1234/api/0.1/user/1/",
      "created": "2020-02-19T05:26:12-05:00",
      "modified_by": "https://us.provetcloud.com/1234/api/0.1/user/1/",
      "modified": "2020-02-20T04:59:48-05:00",
      "recurring_type": null,
      "recurring_times": 0,
      "external_url": null
    },
    {
      "url": "https://us.provetcloud.com/1234/api/0.1/reminder/2/",
      "department": "https://us.provetcloud.com/1234/api/0.1/department/1/",
      "reminder_template": null,
      "patient": "https://us.provetcloud.com/1234/api/0.1/patient/2/",
      "client": "https://us.provetcloud.com/1234/api/0.1/client/2/",
      "email_address": "anakin@example.com",
      "phone_number": "",
      "email_subject": "You have an appointment",
      "email_text": "",
      "sms_text": "",
      "post_text": "",
      "text_manually": false,
      "send_before": 3,
      "send_method": 1,
      "expiry_date": "2020-02-24",
      "planned_sending_date": "2020-02-21",
      "status": 0,
      "created_by": "https://us.provetcloud.com/1234/api/0.1/user/1/",
      "created": "2020-02-20T04:53:25-05:00",
      "modified_by": null,
      "modified": "2020-02-20T04:53:25-05:00",
      "recurring_type": null,
      "recurring_times": 0,
      "external_url": null
    }
  ]
}
