{
  "count": 42,
  "num_pages": 2,
  "next": "https://us.provetcloud.com/1234/api/0.1/vatgroup/?page=2",
  "previous": null,
  "results": [
    {
      "url": "https://us.provetcloud.com/1234/api/0.1/vatgroup/1/",
      "title": "0 %",
      "percentage": 0.0,
      "archived": false,
      "account_number": null
    },
    {
      "url": "https://us.provetcloud.com/1234/api/0.1/vatgroup/2/",
      "title": "25 %",
      "percentage": 25.0,
      "archived": false,
      "account_number": null
    }
  ]
}
