{
  "count": 42,
  "num_pages": 2,
  "next": "https://us.provetcloud.com/1234/api/0.1/invoice/?page=2",
  "previous": null,
  "results": [
    {
      "url": "https://us.provetcloud.com/1234/api/0.1/invoice/1/",
      "department": "https://us.provetcloud.com/1234/api/0.1/department/1/",
      "total": 49.0,
      "total_vat": 0.0,
      "due_sum": -399.23,
      "client_due_sum": -399.23,
      "payer_name": "Luke Skywalker",
      "payer_id_number": "",
      "payer_street_address": "America Square",
      "payer_zip_code": "",
      "payer_city": "London",
      "payer_state": null,
      "payer_organization_name": "",
      "payer_register_number": null,
      "payer_vat_number": "",
      "payer_street_address_2": "",
      "payer_street_address_3": "",
      "payer_country": "No country specified",
      "consultation": "https://us.provetcloud.com/1234/api/0.1/consultation/1/",
      "original_consultation": null,
      "client": "https://us.provetcloud.com/1234/api/0.1/client/1/",
      "created": "2018-03-26T21:21:53-04:00",
      "modified": "2021-02-12T11:47:44-05:00",
      "tags_rel": [],
      "date_paid": "2018-03-26T21:23:52-04:00",
      "invoice_date": "2018-03-26T21:23:52-04:00",
      "send_date": "2018-03-27T01:24:06Z",
      "send_method": "Sent by post",
      "invoice_extras": null,
      "invoice_number": 10000000001,
      "invoice_prefix": ""
    },
    {
      "url": "https://us.provetcloud.com/1234/api/0.1/invoice/2/",
      "department": "https://us.provetcloud.com/1234/api/0.1/department/1/",
      "total": 934.9,
      "total_vat": 0.0,
      "due_sum": 335.67,
      "client_due_sum": 335.67,
      "payer_name": "Anakin Skywalker",
      "payer_id_number": "",
      "payer_street_address": "America Square",
      "payer_zip_code": "",
      "payer_city": "London",
      "payer_state": null,
      "payer_organization_name": "",
      "payer_register_number": null,
      "payer_vat_number": "",
      "payer_street_address_2": "",
      "payer_street_address_3": "",
      "payer_country": "No country specified",
      "consultation": "https://us.provetcloud.com/1234/api/0.1/consultation/2/",
      "original_consultation": null,
      "client": "https://us.provetcloud.com/1234/api/0.1/client/2/",
      "created": "2018-04-03T16:02:26-04:00",
      "modified": "2021-02-12T11:47:46-05:00",
      "tags_rel": [],
      "date_paid": null,
      "invoice_date": "2019-08-06T14:09:25-04:00",
      "send_date": "2019-08-06T18:06:15Z",
      "send_method": "Sent by email",
      "invoice_extras": null,
      "invoice_number": 10000000002,
      "invoice_prefix": ""
    }
  ]
}
