{
    "count": 42,
    "num_pages": 2,
    "next": "https://us.provetcloud.com/1234/api/0.1/veterinarians_availibility/?page=2",
    "previous": null,
    "results": [
        {
            "Luke Skywalker": {
                "vet_id": 1,
                "vet_type": 1,
                "available_times": [
                    "2019-02-15T00:00:00Z",
                    "2019-02-15T00:15:00Z",
                    "2019-02-15T00:30:00Z",
                    "2019-02-15T13:00:00Z",
                    "2019-02-15T13:15:00Z",
                    "2019-02-15T13:30:00Z",
                    "2019-02-15T13:45:00Z",
                    "2019-02-15T14:00:00Z",
                    "2019-02-15T14:15:00Z",
                    "2019-02-15T14:30:00Z",
                    "2019-02-15T14:45:00Z",
                    "2019-02-15T15:00:00Z",
                    "2019-02-15T15:15:00Z",
                    "2019-02-15T15:30:00Z",
                    "2019-02-15T15:45:00Z",
                    "2019-02-15T16:00:00Z",
                    "2019-02-15T16:15:00Z",
                    "2019-02-15T16:30:00Z",
                    "2019-02-15T16:45:00Z",
                    "2019-02-15T17:00:00Z",
                    "2019-02-15T17:15:00Z",
                    "2019-02-15T17:30:00Z",
                    "2019-02-15T17:45:00Z",
                    "2019-02-15T18:00:00Z",
                    "2019-02-15T18:15:00Z",
                    "2019-02-15T18:30:00Z",
                    "2019-02-15T18:45:00Z",
                    "2019-02-15T19:00:00Z",
                    "2019-02-15T19:15:00Z",
                    "2019-02-15T19:30:00Z",
                    "2019-02-15T19:45:00Z",
                    "2019-02-15T20:00:00Z",
                    "2019-02-15T20:15:00Z",
                    "2019-02-15T20:30:00Z",
                    "2019-02-15T20:45:00Z",
                    "2019-02-15T21:00:00Z",
                    "2019-02-15T21:15:00Z",
                    "2019-02-15T21:30:00Z",
                    "2019-02-15T21:45:00Z",
                    "2019-02-15T22:00:00Z",
                    "2019-02-15T22:15:00Z",
                    "2019-02-15T22:30:00Z",
                    "2019-02-15T22:45:00Z",
                    "2019-02-15T23:00:00Z",
                    "2019-02-15T23:15:00Z",
                    "2019-02-15T23:30:00Z",
                    "2019-02-15T23:45:00Z",
                    "2019-02-16T00:00:00Z",
                    "2019-02-16T00:15:00Z",
                    "2019-02-16T00:30:00Z",
                    "2019-02-16T13:00:00Z",
                    "2019-02-16T13:15:00Z",
                    "2019-02-16T13:30:00Z",
                    "2019-02-16T13:45:00Z",
                    "2019-02-16T14:00:00Z",
                    "2019-02-16T14:15:00Z",
                    "2019-02-16T14:30:00Z",
                    "2019-02-16T14:45:00Z",
                    "2019-02-16T15:00:00Z",
                    "2019-02-16T15:15:00Z",
                    "2019-02-16T15:30:00Z",
                    "2019-02-16T15:45:00Z",
                    "2019-02-16T16:00:00Z",
                    "2019-02-16T16:15:00Z",
                    "2019-02-16T16:30:00Z",
                    "2019-02-16T16:45:00Z",
                    "2019-02-16T17:00:00Z",
                    "2019-02-16T17:15:00Z",
                    "2019-02-16T17:30:00Z",
                    "2019-02-16T17:45:00Z",
                    "2019-02-16T18:30:00Z",
                    "2019-02-16T18:45:00Z",
                    "2019-02-16T19:00:00Z",
                    "2019-02-16T19:15:00Z",
                    "2019-02-16T19:30:00Z",
                    "2019-02-16T19:45:00Z",
                    "2019-02-16T20:00:00Z",
                    "2019-02-16T20:15:00Z",
                    "2019-02-16T20:30:00Z",
                    "2019-02-16T20:45:00Z",
                    "2019-02-16T21:00:00Z",
                    "2019-02-16T21:15:00Z",
                    "2019-02-16T21:30:00Z",
                    "2019-02-16T21:45:00Z",
                    "2019-02-16T22:00:00Z",
                    "2019-02-16T22:15:00Z",
                    "2019-02-16T22:30:00Z",
                    "2019-02-16T22:45:00Z",
                    "2019-02-16T23:00:00Z",
                    "2019-02-16T23:15:00Z",
                    "2019-02-16T23:30:00Z",
                    "2019-02-16T23:45:00Z",
                    "2019-02-17T00:00:00Z",
                    "2019-02-17T00:15:00Z",
                    "2019-02-17T00:30:00Z",
                    "2019-02-17T13:00:00Z",
                    "2019-02-17T13:15:00Z",
                    "2019-02-17T13:30:00Z",
                    "2019-02-17T13:45:00Z",
                    "2019-02-17T14:00:00Z",
                    "2019-02-17T14:15:00Z",
                    "2019-02-17T14:30:00Z",
                    "2019-02-17T14:45:00Z",
                    "2019-02-17T15:00:00Z",
                    "2019-02-17T15:15:00Z",
                    "2019-02-17T15:30:00Z",
                    "2019-02-17T15:45:00Z",
                    "2019-02-17T16:00:00Z",
                    "2019-02-17T16:15:00Z",
                    "2019-02-17T16:30:00Z",
                    "2019-02-17T16:45:00Z",
                    "2019-02-17T17:00:00Z",
                    "2019-02-17T17:15:00Z",
                    "2019-02-17T17:30:00Z",
                    "2019-02-17T17:45:00Z",
                    "2019-02-17T18:00:00Z",
                    "2019-02-17T18:15:00Z",
                    "2019-02-17T18:30:00Z",
                    "2019-02-17T18:45:00Z",
                    "2019-02-17T19:00:00Z",
                    "2019-02-17T19:15:00Z",
                    "2019-02-17T19:30:00Z",
                    "2019-02-17T19:45:00Z",
                    "2019-02-17T20:00:00Z",
                    "2019-02-17T20:15:00Z",
                    "2019-02-17T20:30:00Z",
                    "2019-02-17T20:45:00Z",
                    "2019-02-17T21:00:00Z",
                    "2019-02-17T21:15:00Z",
                    "2019-02-17T21:30:00Z",
                    "2019-02-17T21:45:00Z",
                    "2019-02-17T22:00:00Z",
                    "2019-02-17T22:15:00Z",
                    "2019-02-17T22:30:00Z",
                    "2019-02-17T22:45:00Z",
                    "2019-02-17T23:00:00Z",
                    "2019-02-17T23:15:00Z",
                    "2019-02-17T23:30:00Z",
                    "2019-02-17T23:45:00Z",
                    "2019-02-18T00:00:00Z",
                    "2019-02-18T00:15:00Z",
                    "2019-02-18T00:30:00Z",
                    "2019-02-18T13:00:00Z",
                    "2019-02-18T13:15:00Z",
                    "2019-02-18T13:30:00Z",
                    "2019-02-18T13:45:00Z",
                    "2019-02-18T14:00:00Z",
                    "2019-02-18T14:15:00Z",
                    "2019-02-18T14:30:00Z",
                    "2019-02-18T14:45:00Z",
                    "2019-02-18T15:00:00Z",
                    "2019-02-18T15:15:00Z",
                    "2019-02-18T15:30:00Z",
                    "2019-02-18T15:45:00Z",
                    "2019-02-18T16:00:00Z",
                    "2019-02-18T16:15:00Z",
                    "2019-02-18T16:30:00Z",
                    "2019-02-18T16:45:00Z",
                    "2019-02-18T17:00:00Z",
                    "2019-02-18T17:15:00Z",
                    "2019-02-18T17:30:00Z",
                    "2019-02-18T17:45:00Z",
                    "2019-02-18T18:00:00Z",
                    "2019-02-18T18:15:00Z",
                    "2019-02-18T18:30:00Z",
                    "2019-02-18T18:45:00Z",
                    "2019-02-18T19:00:00Z",
                    "2019-02-18T19:15:00Z",
                    "2019-02-18T19:30:00Z",
                    "2019-02-18T19:45:00Z",
                    "2019-02-18T20:00:00Z",
                    "2019-02-18T20:15:00Z",
                    "2019-02-18T20:30:00Z",
                    "2019-02-18T20:45:00Z",
                    "2019-02-18T21:00:00Z",
                    "2019-02-18T21:15:00Z",
                    "2019-02-18T21:30:00Z",
                    "2019-02-18T21:45:00Z",
                    "2019-02-18T22:00:00Z",
                    "2019-02-18T22:15:00Z",
                    "2019-02-18T22:30:00Z",
                    "2019-02-18T22:45:00Z",
                    "2019-02-18T23:00:00Z",
                    "2019-02-18T23:15:00Z",
                    "2019-02-18T23:30:00Z",
                    "2019-02-18T23:45:00Z",
                    "2019-02-19T00:00:00Z",
                    "2019-02-19T00:15:00Z",
                    "2019-02-19T00:30:00Z",
                    "2019-02-19T13:00:00Z",
                    "2019-02-19T13:15:00Z",
                    "2019-02-19T13:30:00Z",
                    "2019-02-19T13:45:00Z",
                    "2019-02-19T14:00:00Z",
                    "2019-02-19T14:15:00Z",
                    "2019-02-19T14:30:00Z",
                    "2019-02-19T14:45:00Z",
                    "2019-02-19T15:00:00Z",
                    "2019-02-19T15:15:00Z",
                    "2019-02-19T15:30:00Z",
                    "2019-02-19T15:45:00Z",
                    "2019-02-19T16:00:00Z",
                    "2019-02-19T16:15:00Z",
                    "2019-02-19T16:30:00Z",
                    "2019-02-19T16:45:00Z",
                    "2019-02-19T17:00:00Z",
                    "2019-02-19T17:15:00Z",
                    "2019-02-19T17:30:00Z",
                    "2019-02-19T17:45:00Z",
                    "2019-02-19T18:00:00Z",
                    "2019-02-19T18:15:00Z",
                    "2019-02-19T18:30:00Z",
                    "2019-02-19T18:45:00Z",
                    "2019-02-19T19:00:00Z",
                    "2019-02-19T19:15:00Z",
                    "2019-02-19T19:30:00Z",
                    "2019-02-19T19:45:00Z",
                    "2019-02-19T20:00:00Z",
                    "2019-02-19T20:15:00Z",
                    "2019-02-19T20:30:00Z",
                    "2019-02-19T20:45:00Z",
                    "2019-02-19T21:00:00Z",
                    "2019-02-19T21:15:00Z",
                    "2019-02-19T21:30:00Z",
                    "2019-02-19T21:45:00Z",
                    "2019-02-19T22:00:00Z",
                    "2019-02-19T22:15:00Z",
                    "2019-02-19T22:30:00Z",
                    "2019-02-19T22:45:00Z",
                    "2019-02-19T23:00:00Z",
                    "2019-02-19T23:15:00Z",
                    "2019-02-19T23:30:00Z",
                    "2019-02-19T23:45:00Z",
                    "2019-02-20T00:00:00Z",
                    "2019-02-20T00:15:00Z",
                    "2019-02-20T00:30:00Z",
                    "2019-02-20T13:00:00Z",
                    "2019-02-20T13:15:00Z",
                    "2019-02-20T13:30:00Z",
                    "2019-02-20T13:45:00Z",
                    "2019-02-20T14:00:00Z",
                    "2019-02-20T14:15:00Z",
                    "2019-02-20T14:30:00Z",
                    "2019-02-20T14:45:00Z",
                    "2019-02-20T15:30:00Z",
                    "2019-02-20T15:45:00Z",
                    "2019-02-20T16:00:00Z",
                    "2019-02-20T16:15:00Z",
                    "2019-02-20T16:30:00Z",
                    "2019-02-20T16:45:00Z",
                    "2019-02-20T17:00:00Z",
                    "2019-02-20T17:15:00Z",
                    "2019-02-20T17:30:00Z",
                    "2019-02-20T17:45:00Z",
                    "2019-02-20T18:00:00Z",
                    "2019-02-20T18:15:00Z",
                    "2019-02-20T18:30:00Z",
                    "2019-02-20T18:45:00Z",
                    "2019-02-20T19:00:00Z",
                    "2019-02-20T19:15:00Z",
                    "2019-02-20T19:30:00Z",
                    "2019-02-20T19:45:00Z",
                    "2019-02-20T20:00:00Z",
                    "2019-02-20T20:15:00Z",
                    "2019-02-20T20:30:00Z",
                    "2019-02-20T20:45:00Z",
                    "2019-02-20T21:00:00Z",
                    "2019-02-20T21:15:00Z",
                    "2019-02-20T21:30:00Z",
                    "2019-02-20T21:45:00Z",
                    "2019-02-20T22:00:00Z",
                    "2019-02-20T22:15:00Z",
                    "2019-02-20T22:30:00Z",
                    "2019-02-20T22:45:00Z"
                ]
            }
        },
        {
            "Anakin Skywalker": {
                "vet_id": 2,
                "vet_type": 1,
                "available_times": [
                    "2019-02-15T00:00:00Z",
                    "2019-02-15T00:15:00Z",
                    "2019-02-15T00:30:00Z",
                    "2019-02-15T13:00:00Z",
                    "2019-02-15T13:15:00Z",
                    "2019-02-15T13:30:00Z",
                    "2019-02-15T13:45:00Z",
                    "2019-02-15T14:00:00Z",
                    "2019-02-15T14:15:00Z",
                    "2019-02-15T14:30:00Z",
                    "2019-02-15T14:45:00Z",
                    "2019-02-15T15:00:00Z",
                    "2019-02-15T15:15:00Z",
                    "2019-02-15T15:30:00Z",
                    "2019-02-15T15:45:00Z",
                    "2019-02-15T16:00:00Z",
                    "2019-02-15T16:15:00Z",
                    "2019-02-15T16:30:00Z",
                    "2019-02-15T16:45:00Z",
                    "2019-02-15T17:00:00Z",
                    "2019-02-15T17:15:00Z",
                    "2019-02-15T17:30:00Z",
                    "2019-02-15T17:45:00Z",
                    "2019-02-15T18:00:00Z",
                    "2019-02-15T18:15:00Z",
                    "2019-02-15T18:30:00Z",
                    "2019-02-15T18:45:00Z",
                    "2019-02-15T19:00:00Z",
                    "2019-02-15T19:15:00Z",
                    "2019-02-15T19:30:00Z",
                    "2019-02-15T19:45:00Z",
                    "2019-02-15T20:00:00Z",
                    "2019-02-15T20:15:00Z",
                    "2019-02-15T20:30:00Z",
                    "2019-02-15T20:45:00Z",
                    "2019-02-15T21:00:00Z",
                    "2019-02-15T21:15:00Z",
                    "2019-02-15T21:30:00Z",
                    "2019-02-15T21:45:00Z",
                    "2019-02-15T22:00:00Z",
                    "2019-02-15T22:15:00Z",
                    "2019-02-15T22:30:00Z",
                    "2019-02-15T22:45:00Z",
                    "2019-02-15T23:00:00Z",
                    "2019-02-15T23:15:00Z",
                    "2019-02-15T23:30:00Z",
                    "2019-02-15T23:45:00Z",
                    "2019-02-16T00:00:00Z",
                    "2019-02-16T00:15:00Z",
                    "2019-02-16T00:30:00Z",
                    "2019-02-16T13:00:00Z",
                    "2019-02-16T13:15:00Z",
                    "2019-02-16T13:30:00Z",
                    "2019-02-16T13:45:00Z",
                    "2019-02-16T14:00:00Z",
                    "2019-02-16T14:15:00Z",
                    "2019-02-16T14:30:00Z",
                    "2019-02-16T14:45:00Z",
                    "2019-02-16T15:00:00Z",
                    "2019-02-16T15:15:00Z",
                    "2019-02-16T15:30:00Z",
                    "2019-02-16T15:45:00Z",
                    "2019-02-16T16:00:00Z",
                    "2019-02-16T16:15:00Z",
                    "2019-02-16T16:30:00Z",
                    "2019-02-16T16:45:00Z",
                    "2019-02-16T17:00:00Z",
                    "2019-02-16T17:15:00Z",
                    "2019-02-16T17:30:00Z",
                    "2019-02-16T17:45:00Z",
                    "2019-02-16T18:30:00Z",
                    "2019-02-16T18:45:00Z",
                    "2019-02-16T19:00:00Z",
                    "2019-02-16T19:15:00Z",
                    "2019-02-16T19:30:00Z",
                    "2019-02-16T19:45:00Z",
                    "2019-02-16T20:00:00Z",
                    "2019-02-16T20:15:00Z",
                    "2019-02-16T20:30:00Z",
                    "2019-02-16T20:45:00Z",
                    "2019-02-16T21:00:00Z",
                    "2019-02-16T21:15:00Z",
                    "2019-02-16T21:30:00Z",
                    "2019-02-16T21:45:00Z",
                    "2019-02-16T22:00:00Z",
                    "2019-02-16T22:15:00Z",
                    "2019-02-16T22:30:00Z",
                    "2019-02-16T22:45:00Z",
                    "2019-02-16T23:00:00Z",
                    "2019-02-16T23:15:00Z",
                    "2019-02-16T23:30:00Z",
                    "2019-02-16T23:45:00Z",
                    "2019-02-17T00:00:00Z",
                    "2019-02-17T00:15:00Z",
                    "2019-02-17T00:30:00Z",
                    "2019-02-17T13:00:00Z",
                    "2019-02-17T13:15:00Z",
                    "2019-02-17T13:30:00Z",
                    "2019-02-17T13:45:00Z",
                    "2019-02-17T14:00:00Z",
                    "2019-02-17T14:15:00Z",
                    "2019-02-17T14:30:00Z",
                    "2019-02-17T14:45:00Z",
                    "2019-02-17T15:00:00Z",
                    "2019-02-17T15:15:00Z",
                    "2019-02-17T15:30:00Z",
                    "2019-02-17T15:45:00Z",
                    "2019-02-17T16:00:00Z",
                    "2019-02-17T16:15:00Z",
                    "2019-02-17T16:30:00Z",
                    "2019-02-17T16:45:00Z",
                    "2019-02-17T17:00:00Z",
                    "2019-02-17T17:15:00Z",
                    "2019-02-17T17:30:00Z",
                    "2019-02-17T17:45:00Z",
                    "2019-02-17T18:00:00Z",
                    "2019-02-17T18:15:00Z",
                    "2019-02-17T18:30:00Z",
                    "2019-02-17T18:45:00Z",
                    "2019-02-17T19:00:00Z",
                    "2019-02-17T19:15:00Z",
                    "2019-02-17T19:30:00Z",
                    "2019-02-17T19:45:00Z",
                    "2019-02-17T20:00:00Z",
                    "2019-02-17T20:15:00Z",
                    "2019-02-17T20:30:00Z",
                    "2019-02-17T20:45:00Z",
                    "2019-02-17T21:00:00Z",
                    "2019-02-17T21:15:00Z",
                    "2019-02-17T21:30:00Z",
                    "2019-02-17T21:45:00Z",
                    "2019-02-17T22:00:00Z",
                    "2019-02-17T22:15:00Z",
                    "2019-02-17T22:30:00Z",
                    "2019-02-17T22:45:00Z",
                    "2019-02-17T23:00:00Z",
                    "2019-02-17T23:15:00Z",
                    "2019-02-17T23:30:00Z",
                    "2019-02-17T23:45:00Z",
                    "2019-02-18T00:00:00Z",
                    "2019-02-18T00:15:00Z",
                    "2019-02-18T00:30:00Z",
                    "2019-02-18T13:00:00Z",
                    "2019-02-18T13:15:00Z",
                    "2019-02-18T13:30:00Z",
                    "2019-02-18T13:45:00Z",
                    "2019-02-18T14:00:00Z",
                    "2019-02-18T14:15:00Z",
                    "2019-02-18T14:30:00Z",
                    "2019-02-18T14:45:00Z",
                    "2019-02-18T15:00:00Z",
                    "2019-02-18T15:15:00Z",
                    "2019-02-18T15:30:00Z",
                    "2019-02-18T15:45:00Z",
                    "2019-02-18T16:00:00Z",
                    "2019-02-18T16:15:00Z",
                    "2019-02-18T16:30:00Z",
                    "2019-02-18T16:45:00Z",
                    "2019-02-18T17:00:00Z",
                    "2019-02-18T17:15:00Z",
                    "2019-02-18T17:30:00Z",
                    "2019-02-18T17:45:00Z",
                    "2019-02-18T18:00:00Z",
                    "2019-02-18T18:15:00Z",
                    "2019-02-18T18:30:00Z",
                    "2019-02-18T18:45:00Z",
                    "2019-02-18T19:00:00Z",
                    "2019-02-18T19:15:00Z",
                    "2019-02-18T19:30:00Z",
                    "2019-02-18T19:45:00Z",
                    "2019-02-18T20:00:00Z",
                    "2019-02-18T20:15:00Z",
                    "2019-02-18T20:30:00Z",
                    "2019-02-18T20:45:00Z",
                    "2019-02-18T21:00:00Z",
                    "2019-02-18T21:15:00Z",
                    "2019-02-18T21:30:00Z",
                    "2019-02-18T21:45:00Z",
                    "2019-02-18T22:00:00Z",
                    "2019-02-18T22:15:00Z",
                    "2019-02-18T22:30:00Z",
                    "2019-02-18T22:45:00Z",
                    "2019-02-18T23:00:00Z",
                    "2019-02-18T23:15:00Z",
                    "2019-02-18T23:30:00Z",
                    "2019-02-18T23:45:00Z",
                    "2019-02-19T00:00:00Z",
                    "2019-02-19T00:15:00Z",
                    "2019-02-19T00:30:00Z",
                    "2019-02-19T13:00:00Z",
                    "2019-02-19T13:15:00Z",
                    "2019-02-19T13:30:00Z",
                    "2019-02-19T13:45:00Z",
                    "2019-02-19T14:00:00Z",
                    "2019-02-19T14:15:00Z",
                    "2019-02-19T14:30:00Z",
                    "2019-02-19T14:45:00Z",
                    "2019-02-19T15:00:00Z",
                    "2019-02-19T15:15:00Z",
                    "2019-02-19T15:30:00Z",
                    "2019-02-19T15:45:00Z",
                    "2019-02-19T16:00:00Z",
                    "2019-02-19T16:15:00Z",
                    "2019-02-19T16:30:00Z",
                    "2019-02-19T16:45:00Z",
                    "2019-02-19T17:00:00Z",
                    "2019-02-19T17:15:00Z",
                    "2019-02-19T17:30:00Z",
                    "2019-02-19T17:45:00Z",
                    "2019-02-19T18:00:00Z",
                    "2019-02-19T18:15:00Z",
                    "2019-02-19T18:30:00Z",
                    "2019-02-19T18:45:00Z",
                    "2019-02-19T19:00:00Z",
                    "2019-02-19T19:15:00Z",
                    "2019-02-19T19:30:00Z",
                    "2019-02-19T19:45:00Z",
                    "2019-02-19T20:00:00Z",
                    "2019-02-19T20:15:00Z",
                    "2019-02-19T20:30:00Z",
                    "2019-02-19T20:45:00Z",
                    "2019-02-19T21:00:00Z",
                    "2019-02-19T21:15:00Z",
                    "2019-02-19T21:30:00Z",
                    "2019-02-19T21:45:00Z",
                    "2019-02-19T22:00:00Z",
                    "2019-02-19T22:15:00Z",
                    "2019-02-19T22:30:00Z",
                    "2019-02-19T22:45:00Z",
                    "2019-02-19T23:00:00Z",
                    "2019-02-19T23:15:00Z",
                    "2019-02-19T23:30:00Z",
                    "2019-02-19T23:45:00Z",
                    "2019-02-20T00:00:00Z",
                    "2019-02-20T00:15:00Z",
                    "2019-02-20T00:30:00Z",
                    "2019-02-20T13:00:00Z",
                    "2019-02-20T13:15:00Z",
                    "2019-02-20T13:30:00Z",
                    "2019-02-20T13:45:00Z",
                    "2019-02-20T14:00:00Z",
                    "2019-02-20T14:15:00Z",
                    "2019-02-20T14:30:00Z",
                    "2019-02-20T14:45:00Z",
                    "2019-02-20T15:30:00Z",
                    "2019-02-20T15:45:00Z",
                    "2019-02-20T16:00:00Z",
                    "2019-02-20T16:15:00Z",
                    "2019-02-20T16:30:00Z",
                    "2019-02-20T16:45:00Z",
                    "2019-02-20T17:00:00Z",
                    "2019-02-20T17:15:00Z",
                    "2019-02-20T17:30:00Z",
                    "2019-02-20T17:45:00Z",
                    "2019-02-20T18:00:00Z",
                    "2019-02-20T18:15:00Z",
                    "2019-02-20T18:30:00Z",
                    "2019-02-20T18:45:00Z",
                    "2019-02-20T19:00:00Z",
                    "2019-02-20T19:15:00Z",
                    "2019-02-20T19:30:00Z",
                    "2019-02-20T19:45:00Z",
                    "2019-02-20T20:00:00Z",
                    "2019-02-20T20:15:00Z",
                    "2019-02-20T20:30:00Z",
                    "2019-02-20T20:45:00Z",
                    "2019-02-20T21:00:00Z",
                    "2019-02-20T21:15:00Z",
                    "2019-02-20T21:30:00Z",
                    "2019-02-20T21:45:00Z",
                    "2019-02-20T22:00:00Z",
                    "2019-02-20T22:15:00Z",
                    "2019-02-20T22:30:00Z",
                    "2019-02-20T22:45:00Z"
                ]
            }
        }
    ]
}
